<?xml version="1.0" encoding="utf-8"?>
<!-- Generator: Adobe Illustrator 18.0.0, SVG Export Plug-In . SVG Version: 6.00 Build 0)  -->
<!DOCTYPE svg PUBLIC "-//W3C//DTD SVG 1.1//EN" "http://www.w3.org/Graphics/SVG/1.1/DTD/svg11.dtd">
<svg version="1.1" id="Layer_1" xmlns="http://www.w3.org/2000/svg" xmlns:xlink="http://www.w3.org/1999/xlink" x="0px" y="0px"
	 viewBox="-44.8 -13.7 141.2 38.7" enable-background="new -44.8 -13.7 141.2 38.7" xml:space="preserve">
<g>
	<path fill="#CCCCCC" d="M-44.4,2.9v-15.4h5.7c0.7,0,1.4,0.1,2,0.3c0.6,0.1,1,0.4,1.4,0.7c0.4,0.4,0.6,0.7,0.7,1.1
		c0.1,0.4,0.3,1,0.3,1.4v0.4c0,0.7-0.1,1.3-0.4,1.8c-0.3,0.6-0.9,1-1.4,1.3c0.7,0.3,1.4,0.7,1.8,1.3c0.4,0.7,0.6,1.4,0.6,2.3v0.4
		c0,0.7-0.1,1.3-0.4,1.8c-0.3,0.4-0.6,0.9-1,1.3c-0.4,0.3-1,0.6-1.6,0.7c-0.6,0.1-1.3,0.3-2,0.3L-44.4,2.9L-44.4,2.9z M-42.3-5.9
		h3.4c0.7,0,1.4-0.1,1.8-0.6c0.4-0.4,0.7-0.9,0.7-1.6v-0.4c0-0.7-0.3-1.4-0.7-1.7c-0.4-0.4-1.1-0.6-2-0.6h-3.3V-5.9z M-42.3,1.2h3.4
		c0.9,0,1.6-0.1,2-0.6c0.6-0.3,0.7-0.9,0.7-1.8v-0.4c0-1.7-1-2.6-2.8-2.6h-3.3V1.2z"/>
	<path fill="#CCCCCC" d="M-25.1-6.4c-0.1,0-0.4,0-0.7-0.1c-0.3,0-0.4,0-0.7,0c-0.4,0-0.7,0-1.1,0.1c-0.4,0.1-0.7,0.3-0.9,0.6
		s-0.4,0.6-0.6,1.1c-0.1,0.4-0.1,1-0.1,1.6v6h-2.1V-8.1h1.8l0.3,1.4c0.4-0.6,0.9-1,1.4-1.3c0.6-0.3,1.1-0.4,2-0.4c0.6,0,1,0,1.4,0.3
		L-25.1-6.4z"/>
	<path fill="#CCCCCC" d="M-11.6,2.9V-8.1h1.8l0.1,1.4c0.4-0.6,0.9-1,1.4-1.1c0.6-0.3,1.3-0.4,2-0.4c0.6,0,1.1,0,1.6,0.3
		c0.4,0.1,0.9,0.4,1.3,0.7S-2.6-6.6-2.5-6c0.1,0.4,0.3,1.1,0.3,1.7v7.4h-2.1v-7c0-1-0.1-1.8-0.6-2.3c-0.4-0.4-0.9-0.6-1.7-0.6
		c-1,0-1.7,0.3-2.1,0.7c-0.4,0.4-0.7,1.3-0.7,2.4v6.5C-9.6,2.9-11.6,2.9-11.6,2.9z"/>
	<path fill="#CCCCCC" d="M19.1,2.9v-15.4H25c0.7,0,1.4,0.1,2.1,0.3c0.6,0.1,1.1,0.4,1.4,0.9c0.4,0.4,0.7,0.7,0.9,1.1
		c0.1,0.4,0.3,1,0.3,1.4v0.4c0,0.7-0.1,1.4-0.4,1.8c-0.4,0.6-0.7,0.9-1.4,1.1C28.5-5,29.1-4.6,29.5-4c0.4,0.7,0.6,1.4,0.6,2.3v0.4
		c0,1.3-0.4,2.3-1.3,3C28,2.4,26.7,2.8,25,2.8L19.1,2.9L19.1,2.9z M21.7-6.2h3c0.7,0,1.1-0.1,1.6-0.4s0.6-0.7,0.6-1.4v-0.4
		c0-1.4-0.7-2-2.3-2h-2.8V-6.2L21.7-6.2z M21.7,0.8h3.1c1.6,0,2.4-0.7,2.4-2.1v-0.4c0-1.6-0.9-2.3-2.6-2.3h-3L21.7,0.8L21.7,0.8z"/>
	<path fill="#CCCCCC" d="M37.2-8.6c1,0,1.8,0.1,2.4,0.4c0.7,0.3,1.1,0.7,1.6,1.1c0.4,0.4,0.7,1,0.9,1.7c0.1,0.7,0.3,1.4,0.3,2.1v0.9
		c0,0.7,0,1.4-0.3,2.1c-0.1,0.7-0.4,1.1-0.9,1.7c-0.4,0.4-0.9,0.9-1.6,1.1s-1.4,0.4-2.6,0.4c-1,0-1.8-0.1-2.6-0.4
		c-0.7-0.3-1.1-0.7-1.6-1.1c-0.4-0.4-0.7-1.1-0.9-1.7c-0.1-0.7-0.3-1.4-0.3-2.1v-0.9c0-0.7,0-1.4,0.3-2.1C32.2-6,32.5-6.6,32.9-7
		c0.4-0.4,0.9-0.9,1.6-1.1C35.4-8.3,36.2-8.6,37.2-8.6z M37.2,1.1c0.9,0,1.6-0.3,1.8-0.7C39.5,0,39.6-0.9,39.6-2v-1.3
		c0-1.1-0.1-2-0.6-2.4c-0.4-0.4-1-0.7-1.8-0.7s-1.6,0.3-2,0.7c-0.4,0.4-0.6,1.3-0.6,2.4V-2c0,0.6,0,1.1,0.1,1.6
		c0.1,0.4,0.3,0.7,0.4,1s0.4,0.4,0.7,0.6C36.5,1.1,36.8,1.1,37.2,1.1z"/>
	<path fill="#CCCCCC" d="M49.9-8.6c1,0,1.8,0.1,2.4,0.4c0.6,0.3,1.1,0.7,1.6,1.1c0.4,0.4,0.7,1,0.9,1.7C54.8-4.6,55-3.9,55-3.2v0.9
		c0,0.7,0,1.4-0.3,2.1c-0.1,0.7-0.4,1.1-0.9,1.7c-0.4,0.4-0.9,0.9-1.6,1.1c-0.7,0.3-1.4,0.4-2.6,0.4c-1.1,0-1.8-0.1-2.6-0.4
		c-0.7-0.3-1.1-0.7-1.6-1.1c-0.4-0.4-0.7-1.1-0.9-1.7c-0.1-0.7-0.3-1.4-0.3-2.1v-0.9c0-0.7,0-1.4,0.3-2.1C44.9-6,45.2-6.6,45.6-7
		c0.4-0.4,0.9-0.9,1.6-1.1C48.2-8.3,49-8.6,49.9-8.6z M50,1.1c0.9,0,1.6-0.3,1.8-0.7C52.1,0,52.4-0.9,52.4-2v-1.3
		c0-1.1-0.1-2-0.6-2.4c-0.4-0.4-1-0.7-1.8-0.7c-0.9,0-1.6,0.3-2,0.7s-0.6,1.3-0.6,2.4V-2c0,0.6,0,1.1,0.1,1.6s0.3,0.7,0.4,1
		c0.1,0.3,0.4,0.4,0.7,0.6C49.1,1.1,49.4,1.1,50,1.1z"/>
	<path fill="#CCCCCC" d="M60.2-2.2v5.1h-2.6v-16.1h2.6v9l4.3-4.1h3l-5.3,5l5.4,6.1h-3L60.2-2.2z"/>
</g>
<g>
	<path fill="#CCCCCC" d="M-32.3,19.6c0-1.3-0.7-2.1-2.1-2.1h-6.7v1.8c0,1.3,0.7,2.3,2,2.3h4.7C-33.2,21.6-32.3,20.9-32.3,19.6
		 M-41.1,14.7h6.5c1,0,1.7-0.7,1.7-1.7c0-1.3-0.9-1.8-1.7-1.8h-6.5V14.7z M-44.8,19.6V8.6h11.5c2.8,0,4.1,2,4.1,4
		c0,1.7-0.9,3-2.3,3.6c1.8,0.6,3,2,3,3.8c0,2.1-1.1,4.3-4.4,4.3h-7.3C-42.7,24.1-44.8,22.6-44.8,19.6"/>
	<path fill="#CCCCCC" d="M-22.9,15.2h6.3c1.3,0,2-0.9,2-1.8c0-1.3-0.7-2-1.8-2h-6.3v3.8H-22.9z M-26.8,8.6h11.1c2.8,0,4.5,2,4.5,4.5
		c0,2.8-2.1,4.7-5.3,4.7l5,6.4H-16l-4.7-6.4h-2.4v6.4h-3.7C-26.8,24.3-26.8,8.6-26.8,8.6z"/>
	<path fill="#CCCCCC" d="M1.9,18.4l-3.1-7l-3.1,7H1.9z M-3.9,9.5c0.3-0.6,1-0.9,1.6-1c0.9,0,1.6,0,2.4,0c0.7,0,1.3,0.3,1.6,1
		l6.8,14.6H4.2l-1.3-3h-8.4l-1.3,3h-4L-3.9,9.5z"/>
	<polygon fill="#CCCCCC" points="29.7,11.2 24.3,11.2 24.3,8.6 38.9,8.6 38.9,11.2 33.4,11.2 33.4,24.1 29.7,24.1 	"/>
	<path fill="#CCCCCC" d="M84.1,15.3h5.7c1.4,0,2.1-1,2.1-2c0-1.3-0.9-2.1-2.1-2.1h-5.7V15.3z M80.4,8.6h10.7c2.8,0,4.7,2.1,4.7,4.7
		c0,3-2.4,4.7-5.4,4.7h-6.3v6.1h-3.7V8.6z"/>
	<path fill="#CCCCCC" d="M40.3,8.6h15.1v2.6H44v7.1c0,1.1,0.3,1.8,1,2.4c0.6,0.6,1.6,0.9,2.6,0.9h7.8v2.6h-9.5
		c-0.9,0-1.6-0.1-2.3-0.3c-0.7-0.3-1.3-0.6-1.8-1c-0.6-0.4-0.9-1-1.1-1.6c-0.3-0.6-0.4-1.3-0.4-2.1V8.6H40.3z"/>
	<path fill="#CCCCCC" d="M47.6,17.6c-0.7,0-1.3-0.3-1.7-0.9c-0.4-0.6-0.6-1.3-0.6-2h8.5v2.8H47.6z"/>
	<path fill="#CCCCCC" d="M57.4,9.9c0-0.4,0.1-0.7,0.4-1c0.3-0.3,0.7-0.4,1.1-0.4c1.1,0,2.1,0,3.3,0c0.3,0,0.6,0.1,0.9,0.4
		c0.3,0.3,0.6,0.6,0.7,0.9l3.8,9.2l3.8-9.4c0.1-0.3,0.3-0.6,0.7-0.9c0.3-0.3,0.7-0.3,1-0.4c1,0,2,0,3.1,0c0.4,0,0.7,0.1,1.1,0.4
		c0.3,0.3,0.4,0.6,0.4,1L78.2,24h-3.7V11.9c0-0.1,0-0.1-0.1-0.1c0,0-0.1,0-0.1,0.1l-3.8,9.2c-0.1,0.3-0.3,0.6-0.7,0.7
		c-0.3,0.1-0.6,0.3-0.9,0.3c-0.7,0-1.4,0-2.1,0c-0.3,0-0.6-0.1-1-0.3c-0.3-0.1-0.6-0.4-0.7-0.7l-3.8-9.2c0-0.1-0.1-0.1-0.1-0.1
		l-0.1,0.1V24h-3.7L57.4,9.9z"/>
	<path fill="#CCCCCC" d="M8.8,21.6h9.4c0.6,0,1.1-0.1,1.6-0.4s0.6-0.7,0.6-1.3c0-0.4-0.1-0.7-0.4-1c-0.3-0.3-0.9-0.6-1.4-0.6
		c-0.6-0.1-1.3-0.1-2.1-0.3c-1-0.1-1.8-0.1-2.6-0.3c-1.8-0.3-3.1-0.9-4-1.7c-0.9-0.9-1.1-1.8-1.1-3.1c0-0.6,0.1-1.1,0.3-1.7
		c0.3-0.6,0.6-1,1-1.4s0.9-0.7,1.6-1c0.6-0.3,1.3-0.3,2-0.3h9.2V11h-8.2c-1.4,0-2.1,0.4-2.1,1.4c0,0.6,0.1,0.9,0.6,1.1
		c0.4,0.3,1,0.4,1.8,0.6c0.1,0,0.4,0,0.7,0.1c0.4,0,0.9,0.1,1.3,0.1c0.4,0,0.9,0.1,1.3,0.1c0.4,0,0.7,0.1,0.7,0.1
		c0.7,0.1,1.4,0.3,2,0.4c0.7,0.1,1.3,0.4,1.7,0.9c0.4,0.3,0.9,0.9,1.1,1.3c0.3,0.6,0.4,1.1,0.4,2c0,1.3-0.4,2.3-1.3,3.3
		c-0.9,0.9-2,1.4-3.7,1.4H9.8L8.8,21.6z"/>
</g>
<g>
	<path fill="#CCCCCC" d="M-23.1-0.3c0-0.7,0.1-1.1,0.3-1.7c0.1-0.4,0.4-0.9,0.9-1c0.4-0.1,0.9-0.4,1.3-0.6c0.6-0.1,1.1-0.1,1.7-0.1
		c0.7,0,1.3,0,1.7,0.1c0.4,0.1,0.9,0.4,1.3,0.7v-0.9c0-0.6-0.1-1-0.3-1.4s-0.3-0.7-0.6-0.9c-0.3-0.1-0.6-0.4-1-0.4
		c-0.4-0.1-0.9-0.1-1.3-0.1c-0.6,0-1,0-1.6,0.1c-0.6,0.1-1,0.1-1.6,0.3l0.3-1.6c0.4-0.1,0.9-0.3,1.4-0.3c0.6-0.1,1.1-0.1,1.7-0.1
		c1.6,0,2.7,0.3,3.6,1C-14.4-6.4-14-5.4-14-4v7.1h-1.8L-16,1.9c-0.4,0.6-0.9,0.9-1.4,1.1c-0.6,0.3-1.3,0.3-2,0.3
		c-1.3,0-2.3-0.3-2.8-0.9c-0.7-0.6-1-1.4-1-2.6v-0.3H-23.1z M-21.1-0.2c0,0.7,0.1,1.1,0.6,1.4s1,0.4,1.8,0.4c0.4,0,0.7,0,1.1-0.1
		c0.3-0.1,0.6-0.1,0.9-0.3c0.3-0.1,0.4-0.4,0.6-0.6c0.1-0.3,0.3-0.6,0.3-1v-0.1c0-0.6-0.1-1-0.6-1.3c-0.4-0.3-1-0.4-1.8-0.4h-0.4
		c-0.9,0-1.4,0.1-1.8,0.4s-0.6,0.9-0.6,1.4C-21.1-0.3-21.1-0.2-21.1-0.2z"/>
</g>
<g>
	<path fill="#CCCCCC" d="M0.7-2.9c0-1,0.1-1.7,0.3-2.4s0.6-1.3,1-1.7c0.4-0.4,0.9-0.7,1.6-1c0.6-0.1,1.3-0.3,2-0.3
		c0.6,0,1.1,0,1.6,0.1c0.4,0.1,1,0.3,1.4,0.6V-13h2.1V2.9H8.8L8.5,1.8C8.3,1.9,8.2,2.2,8.1,2.4C7.9,2.5,7.6,2.7,7.3,2.9
		c-0.3,0.1-0.6,0.3-1,0.4C5.9,3.5,5.5,3.5,4.9,3.5c-1.4,0-2.4-0.4-3.1-1.3c-0.7-0.9-1-2.3-1-4.1v-1H0.7z M2.8-2.2
		c0,0.6,0,1.1,0.1,1.7c0.1,0.6,0.3,0.9,0.4,1.1C3.5,1,3.8,1.2,4.2,1.4c0.3,0.1,0.9,0.3,1.3,0.3c1,0,1.7-0.3,2.1-0.7
		c0.4-0.6,0.7-1.3,0.7-2.6v-4.3C8.1-6,7.6-6.2,7.2-6.3C6.8-6.4,6.4-6.4,5.8-6.4c-1.1,0-1.8,0.3-2.3,0.9C3.1-5,2.8-4,2.8-2.7V-2.2z"
		/>
</g>
</svg>
