<?xml version="1.0" encoding="utf-8"?>
<!-- Generator: Adobe Illustrator 18.0.0, SVG Export Plug-In . SVG Version: 6.00 Build 0)  -->
<!DOCTYPE svg PUBLIC "-//W3C//DTD SVG 1.1//EN" "http://www.w3.org/Graphics/SVG/1.1/DTD/svg11.dtd">
<svg version="1.1" id="Layer_1" xmlns="http://www.w3.org/2000/svg" xmlns:xlink="http://www.w3.org/1999/xlink" x="0px" y="0px"
	 viewBox="0 0 20 12.8" enable-background="new 0 0 20 12.8" xml:space="preserve">
<rect y="0" fill="#760013" width="20" height="2.9"/>
<rect y="4.9" fill="#760013" width="20" height="2.9"/>
<rect y="9.8" fill="#760013" width="20" height="2.9"/>
</svg>
